*** Life<ConwayCell> 46x19 ***

Generation = 0, Population = 60.
..*.....*....*..*..
..*.........*......
..*................
....*..............
........*..........
......*.*..........
..............*.*..
...................
.*....*............
...................
.......*.........*.
.*..........*......
.*...........*.....
...................
.......*.......*..*
...................
*................*.
.*..............*..
...................
..........*........
.......*...........
...................
............*......
..............*....
...................
......*....*....*..
...................
.*.........*.......
...................
*.*................
.............*..*..
...................
.......*...........
...................
*...*...*..........
....*..............
...........*.......
...*...............
...*....**.......*.
...*....*..........
...................
......*..........*.
...................
................*..
...........*.*.....
.............*.....

*** Life<ConwayCell> 40x11 ***

Generation = 0, Population = 61.
...........
.*..***.**.
..*........
...*...*...
.*.........
...........
.*.........
.*.........
....*......
...........
.*.........
...*..*.*..
..*.*......
...**...*.*
...........
...........
.........*.
.*..*...*..
..........*
....*.*....
...*.*.....
..*........
...*.*.....
....*......
.*........*
....*..*...
...........
......*....
...*...*...
*.........*
.*.........
....*......
*..........
....**....*
*...*.....*
...........
...*.......
*.*........
*...*.*....
..........*

Generation = 8, Population = 53.
..**.......
.*....**...
.*....*.*..
..*.....*..
...*****...
...........
...........
...........
...*.......
..***......
.*...*.....
***.***....
.*....*....
.***.***...
..*...*....
...***.....
....*......
...........
...........
**.........
**.........
...........
**.........
...........
...........
...........
...........
...........
...........
...........
...........
...........
....**.....
...*..*....
....**.....
...........
...........
...........
...........
...........

*** Life<ConwayCell> 49x16 ***

Generation = 0, Population = 72.
..*.............
...............*
......*........*
................
....*.......*...
...............*
.....*..........
....**..........
.......*...*....
.........*.....*
................
*...............
................
*...*....*......
................
.............*..
*.*.*...........
.......*.*......
......*...*.....
.....*..........
.*..............
...*............
........*.......
.........*......
*..........*....
.............*..
................
*..*..*.........
..*.....*.......
..*......*......
*..........*....
......*.........
.......*.....**.
................
........*..*.*..
...*...*........
................
.*....*..*......
................
......*.......*.
.............*..
.*.........*....
.*..*...........
....*..**.......
.........*..*...
......*.....*...
..*........*....
................
..............*.

Generation = 3, Population = 16.
................
................
................
................
................
................
................
....*.*.........
.....*..........
................
................
................
................
................
................
................
................
................
................
................
................
................
................
................
................
................
................
.**.............
.**.............
.**.............
................
................
................
............***.
................
................
................
................
................
................
................
................
................
.......**.......
.......**.......
................
................
................
................

Generation = 6, Population = 13.
................
................
................
................
................
................
................
................
................
................
................
................
................
................
................
................
................
................
................
................
................
................
................
................
................
................
................
.**.............
*..*............
.**.............
................
................
.............*..
.............*..
.............*..
................
................
................
................
................
................
................
................
.......**.......
.......**.......
................
................
................
................

*** Life<ConwayCell> 41x20 ***

Generation = 0, Population = 70.
....*.............*.
..........*.........
.....*....*....*....
....**..............
........*...........
..*...*.............
*.....*.*...........
......*..........*..
............*.......
..*.*..........**.*.
..............*.....
.....*...*.........*
.....*..............
.*..*...............
...........**.......
.............*...*.*
.*..................
......*...*.*.......
....................
......**........*...
............*.....*.
.......*..........*.
........*...........
....................
....................
....................
....................
.*.....*.*..........
..................*.
......*....*.......*
....................
....*...............
...................*
..........*.........
....*.......**......
..*........*........
....*.*.............
.........*..*.......
................*..*
..............*.....
...*...............*

Generation = 1, Population = 26.
....................
....................
....**..............
....**..............
.....*..............
....................
.....**.............
.......*............
................**..
...............*....
...............*....
....................
....**..............
....................
............*.......
............*.......
....................
....................
......**............
....................
......**.........*..
....................
....................
....................
....................
....................
....................
....................
....................
....................
....................
....................
....................
....................
...........**.......
...*.*......*.......
....................
....................
....................
....................
....................

Generation = 2, Population = 15.
....................
....................
....**..............
......*.............
....**..............
.....**.............
......*.............
......*.............
................*...
...............*....
....................
....................
....................
....................
....................
....................
....................
....................
....................
....................
....................
....................
....................
....................
....................
....................
....................
....................
....................
....................
....................
....................
....................
....................
...........**.......
...........**.......
....................
....................
....................
....................
....................

Generation = 3, Population = 11.
....................
....................
.....*..............
......*.............
....*...............
....*.*.............
......**............
....................
....................
....................
....................
....................
....................
....................
....................
....................
....................
....................
....................
....................
....................
....................
....................
....................
....................
....................
....................
....................
....................
....................
....................
....................
....................
....................
...........**.......
...........**.......
....................
....................
....................
....................
....................

Generation = 4, Population = 10.
....................
....................
....................
.....*..............
....................
......**............
.....***............
....................
....................
....................
....................
....................
....................
....................
....................
....................
....................
....................
....................
....................
....................
....................
....................
....................
....................
....................
....................
....................
....................
....................
....................
....................
....................
....................
...........**.......
...........**.......
....................
....................
....................
....................
....................

Generation = 5, Population = 10.
....................
....................
....................
....................
......*.............
.....*.*............
.....*.*............
......*.............
....................
....................
....................
....................
....................
....................
....................
....................
....................
....................
....................
....................
....................
....................
....................
....................
....................
....................
....................
....................
....................
....................
....................
....................
....................
....................
...........**.......
...........**.......
....................
....................
....................
....................
....................

Generation = 6, Population = 10.
....................
....................
....................
....................
......*.............
.....*.*............
.....*.*............
......*.............
....................
....................
....................
....................
....................
....................
....................
....................
....................
....................
....................
....................
....................
....................
....................
....................
....................
....................
....................
....................
....................
....................
....................
....................
....................
....................
...........**.......
...........**.......
....................
....................
....................
....................
....................

Generation = 7, Population = 10.
....................
....................
....................
....................
......*.............
.....*.*............
.....*.*............
......*.............
....................
....................
....................
....................
....................
....................
....................
....................
....................
....................
....................
....................
....................
....................
....................
....................
....................
....................
....................
....................
....................
....................
....................
....................
....................
....................
...........**.......
...........**.......
....................
....................
....................
....................
....................

Generation = 8, Population = 10.
....................
....................
....................
....................
......*.............
.....*.*............
.....*.*............
......*.............
....................
....................
....................
....................
....................
....................
....................
....................
....................
....................
....................
....................
....................
....................
....................
....................
....................
....................
....................
....................
....................
....................
....................
....................
....................
....................
...........**.......
...........**.......
....................
....................
....................
....................
....................

Generation = 9, Population = 10.
....................
....................
....................
....................
......*.............
.....*.*............
.....*.*............
......*.............
....................
....................
....................
....................
....................
....................
....................
....................
....................
....................
....................
....................
....................
....................
....................
....................
....................
....................
....................
....................
....................
....................
....................
....................
....................
....................
...........**.......
...........**.......
....................
....................
....................
....................
....................

Generation = 10, Population = 10.
....................
....................
....................
....................
......*.............
.....*.*............
.....*.*............
......*.............
....................
....................
....................
....................
....................
....................
....................
....................
....................
....................
....................
....................
....................
....................
....................
....................
....................
....................
....................
....................
....................
....................
....................
....................
....................
....................
...........**.......
...........**.......
....................
....................
....................
....................
....................

*** Life<ConwayCell> 45x13 ***

Generation = 0, Population = 76.
............*
*...*.*......
....*....*...
........*.*..
...*........*
.......*.....
..**..*......
.....*.*..*..
.............
..**.*......*
..........*..
.**..........
.............
.............
*............
............*
..*..*...*...
*...........*
.............
.....*.......
...*...*...*.
.**..........
..........**.
......*..**..
.....*...*...
....*..*...*.
.........*...
.....*.......
......**.....
.*.......*...
.............
.....*...*...
.*..*........
...*....*....
...*.........
.............
..*..........
...*.........
...*..*....*.
.............
..*......*..*
..*........*.
..*...*...*..
.............
*.*....*.....

Generation = 2, Population = 20.
.............
.............
.............
.............
.............
.............
......**.....
......*......
.....*.......
.............
.............
.............
.............
.............
.............
.............
.............
.............
.............
.............
.............
.........*.*.
.........*..*
...........*.
.......**....
.......**....
.............
.............
.............
.............
.............
.............
....*........
...**........
...*.........
.............
.............
.............
.............
.............
..*..........
..*..........
.*...........
.............
.............

Generation = 4, Population = 18.
.............
.............
.............
.............
.............
.............
.....*.*.....
.....*.*.....
......*......
.............
.............
.............
.............
.............
.............
.............
.............
.............
.............
.............
.............
...........*.
...........*.
.......**....
.........*...
.......**....
.............
.............
.............
.............
.............
.............
...**........
..*..*.......
...**........
.............
.............
.............
.............
.............
.............
.............
.............
.............
.............

Generation = 6, Population = 10.
.............
.............
.............
.............
.............
.............
.............
......*......
......*......
.............
.............
.............
.............
.............
.............
.............
.............
.............
.............
.............
.............
.............
.............
.............
........**...
.............
.............
.............
.............
.............
.............
.............
...**........
..*..*.......
...**........
.............
.............
.............
.............
.............
.............
.............
.............
.............
.............

Generation = 8, Population = 6.
.............
.............
.............
.............
.............
.............
.............
.............
.............
.............
.............
.............
.............
.............
.............
.............
.............
.............
.............
.............
.............
.............
.............
.............
.............
.............
.............
.............
.............
.............
.............
.............
...**........
..*..*.......
...**........
.............
.............
.............
.............
.............
.............
.............
.............
.............
.............

*** Life<ConwayCell> 42x19 ***

Generation = 0, Population = 65.
......*....*..*....
......*....*.......
...................
*.*......*...*.....
...............*.*.
........*..*....*..
...................
................*..
...................
......*............
.............*.....
..............*....
.............*.....
........*....*.....
...................
..*..........*.....
.*...........*.....
..*.............**.
.*................*
...*.*.............
...**.....*........
...*......*...*....
...................
...................
..........**.......
.....*.**..........
...................
...................
....*.*............
*...*.............*
.......*.....*.....
...................
.*.................
...................
..........*......*.
.*.........*.......
...................
...................
*...........*..*..*
.......*........*..
.*....*............
....*.......*......

*** Life<ConwayCell> 40x10 ***

Generation = 0, Population = 56.
*.*.......
..*....*..
...*......
..........
.........*
.*..*...*.
*...*.....
..........
....*..*..
..........
..*......*
..*..*..*.
.....*....
..*.*.....
..........
..**......
......*...
.*..*.....
..........
.*...*.*..
..........
..*......*
..*.......
.....*...*
..*....*..
..*.......
...*.....*
....*.....
....*....*
..*.......
..........
...*......
.....*...*
..*......*
....*.....
..........
.*..*.*...
.....*....
.*...*....
.......*..

Generation = 5, Population = 12.
.**.......
*..*......
.**.......
..........
..........
..........
..........
..........
..........
..........
..........
....*.....
....*.....
...*.*....
..........
..........
..........
..........
..........
..........
..........
..........
..........
..........
..........
..........
....*.....
....*.....
..........
..........
..........
..........
..........
..........
..........
..........
..........
..........
..........
..........

*** Life<ConwayCell> 40x19 ***

Generation = 0, Population = 86.
......*.*..........
.....*......*.*....
...........*.*.....
...................
*..*.........*.....
.....*.............
.*........*......*.
...........*.......
..........*........
...............*...
....*...*.....*...*
*......*..**.......
............*......
...................
....*..............
*.........*......*.
............*......
.........*......*..
....*....*......*..
..*................
..*...*.....*..*...
..........*........
*.*................
...................
........*..........
......**.**........
*...........*.....*
...*........*......
....*.*..*....*....
............*...*..
..*..............*.
...................
.......*....*......
...*...............
..*........*.......
......*..*........*
....*.**..**.......
...............*.**
....*........**.*..
..**...........*..*

Generation = 4, Population = 22.
...................
...................
...........**......
...................
...................
...................
...................
...................
...................
...................
...................
...................
...................
...................
...................
...................
...................
...................
...................
...................
...................
...................
...................
........**.........
.......*..*........
.......*...........
........***........
...................
...................
...................
...................
...................
...................
...................
......*............
.....**............
...*..*............
...*..........*....
...*.*.......*.*...
..............*....

Generation = 8, Population = 32.
...................
...................
...................
...................
...................
...................
...................
...................
...................
...................
...................
...................
...................
...................
...................
...................
...................
...................
...................
...................
...................
...................
.........*.........
........***........
.......*..**.......
......***.**.......
.......*****.......
.........*.........
...................
...................
...................
...................
...................
...................
.......*...........
...***.*...........
..*.*..............
..***.........*....
.............*.*...
..............*....

*** Life<ConwayCell> 47x20 ***

Generation = 0, Population = 58.
..................*.
..*.................
.*................*.
.**.............*...
.......*...........*
....................
*...................
....................
....................
....................
...............*....
.........*..........
.*..**..............
...*................
....................
....................
............*.......
....................
......*.............
....................
...............*....
...*................
....................
....................
..........**........
....................
*..........*...*....
..................*.
................*...
.*.......**..*......
....................
*.....*.............
..............*...*.
....................
...*........*.......
......*...........*.
....*...............
............*......*
..*...*....**.......
....*.............*.
....................
....................
..*...........*..*..
...........**.......
....................
........*.*....**...
..*.................

Generation = 8, Population = 8.
....................
....................
.**.................
.**.................
....................
....................
....................
....................
....................
....................
....................
....................
....................
....................
....................
....................
....................
....................
....................
....................
....................
....................
....................
....................
....................
....................
....................
....................
....................
....................
....................
....................
....................
....................
....................
....................
....................
...........**.......
...........**.......
....................
....................
....................
....................
....................
....................
....................
....................

*** Life<ConwayCell> 40x18 ***

Generation = 0, Population = 78.
......*...........
..................
..................
*..*..............
...**......*......
..................
...*..............
.**...*..*........
..................
*.................
..............*...
.......*....*....*
.**...............
...*.....*.......*
.....*.......*....
...*..............
............*.....
..................
....*.....*.....*.
................*.
.*...........*....
*...........*.....
*.....*...........
...*....*..*......
...............***
.....**...........
.......*...***....
.*.....**.........
.....*.*....*....*
...*........*...*.
.*.*...*......**..
........**..*.....
.............*....
..........*.......
......*...........
*.................
..*...............
.....*............
...*..........*...
....*..*.*.....**.

*** Life<ConwayCell> 44x11 ***

Generation = 0, Population = 60.
...........
...*.......
...........
...**...*..
...........
.........**
..*.*.*...*
..*........
.........**
..........*
...........
...........
*..........
....*....*.
.....*..*..
..*........
.....***...
...........
..*......*.
....**.....
..........*
*..*.*.....
.*...*....*
.*.....*...
...*.......
...........
.*.........
.........**
.....*....*
...........
....*.*...*
*..........
...........
...........
*..........
..........*
..**....*..
..*.*......
.....*.....
.......*...
......*....
...........
*....**....
....*......

Generation = 5, Population = 24.
...........
...........
...........
...........
...........
...........
...........
...........
...........
...........
...........
...........
...........
...........
......*....
......*....
.....*.*...
......*....
......*....
...........
...........
.*.........
*..*.......
*.**.......
.**........
...........
...........
.........**
.........**
...........
...........
...........
...........
...........
...........
...........
..**.......
..**.......
...........
...........
...........
...........
....**.....
...........

Generation = 10, Population = 40.
...........
...........
...........
...........
...........
...........
...........
...........
...........
...........
...........
...........
...........
......*....
.....***...
....*.*.*..
...***.***.
....*.*.*..
.....***...
......*....
...........
...........
...*.......
.****......
*...*......
*..*.......
.***.......
.........**
.........**
...........
...........
...........
...........
...........
...........
...........
..**.......
..**.......
...........
...........
...........
...........
...........
...........

*** Life<ConwayCell> 45x13 ***

Generation = 0, Population = 58.
......**.....
.*.*.........
**...........
............*
.*...*...*...
...*.*.......
.*...........
.............
*....*.......
..........*..
.........*..*
.........*..*
........*....
.....*.*.....
..*......*..*
.............
.............
........*....
*............
*............
............*
*.........*..
....*.....*..
*..*.*.......
.............
...*.....*..*
......*......
.......**....
.............
..........*..
......*......
.............
.............
....*.**.....
..*...**.....
.............
..*..........
.............
............*
*.*..........
.............
.............
*............
.............
..*...*......

Generation = 9, Population = 27.
.............
.............
.**..........
*..*.........
.*.*.........
..*..........
.............
.............
.............
.........*...
........*.*..
.......*..*..
........**...
.............
.............
.............
.............
.............
.............
.............
.............
.............
....*........
....*........
....*........
.............
.......**....
.......**....
.............
.............
.............
.............
......*......
.....*.*.....
.....*.*.....
......*......
.............
.............
.............
.............
.............
.............
.............
.............
.............

*** Life<ConwayCell> 41x11 ***

Generation = 0, Population = 72.
..**..**.*.
......*....
....*.*....
.....*..*..
...........
*.*...*.*..
....*.*....
..***...*..
..*.*...*..
...........
........*..
*........*.
....*....*.
..........*
....*..*..*
...*.......
......*.*..
....*......
...*.......
.....**....
*...*......
......*.*..
.....*..*..
...*......*
.....*..*..
...........
..*.*.....*
.....*.*...
....*......
...........
.......*...
*..........
**.....*...
.....*..*..
..*..*.....
....*......
*.....*...*
...........
...........
...........
..*...*..**

Generation = 9, Population = 15.
...........
...........
...........
...........
...........
...........
.**........
.**........
...........
...........
...........
...........
...........
...........
...........
...........
...........
...........
...........
...........
...........
...........
...........
...........
...........
...........
...........
...***.....
...........
...........
...........
...........
.....**....
....*..*...
....*..*...
.....**....
...........
...........
...........
...........
...........

*** Life<ConwayCell> 44x10 ***

Generation = 0, Population = 70.
......*...
**........
*...*.....
....**....
...*..*..*
.....*....
..........
...*.*....
.**..*....
...*......
*.*.*..*.*
*..*......
.......*..
..........
.......*..
.**.......
..*.......
..*.......
.*........
.....*..*.
..*.....**
.*.*......
......*...
**.....*..
...*.*....
....**.*..
*.....*...
.**.......
...*......
...**.....
.........*
..........
..**......
........*.
...**....*
*.........
...*......
..........
........*.
...*...*..
........*.
....*.....
......*.*.
..........

*** Life<ConwayCell> 48x12 ***

Generation = 0, Population = 80.
.**.*.......
............
.....*..*...
*...........
..*...*.....
......*.....
............
........*.*.
............
.*........*.
.*...*......
........*...
.....*......
....**..*...
..*....*....
....*.......
.......*....
.**........*
............
........*...
............
.....**.....
............
...*....*...
......*.....
....*.*..**.
...*...*....
*.......*...
........*...
.*..........
.*..*.*.*...
.....*...*..
.*..*......*
.......*....
............
.*.....*....
.....**.....
............
.*..........
.....*...*..
.*..*.......
...*...**...
.....*.*...*
.*....*.....
..........*.
.......**..*
...*.......*
*......*.**.

Generation = 5, Population = 37.
............
............
............
............
............
............
............
............
............
............
............
............
.....**.....
.....***....
.....**.....
............
............
............
............
............
............
............
............
............
.......*.*..
.......*..*.
.......*...*
........***.
........**..
............
............
............
............
............
............
............
............
............
............
............
............
...**...**..
....***..**.
.....**..**.
.........*..
........**..
.........*.*
..........*.

Generation = 10, Population = 38.
............
............
............
............
............
............
............
............
............
............
............
......*.....
.....***....
....**.**...
.....***....
......*.....
............
............
............
............
............
............
............
......***...
......*.*...
......*.**..
.........*..
............
............
............
............
............
............
............
............
............
............
............
............
............
........*...
...**...*...
...*.***.*..
....**...*..
.....*....*.
..........*.
........*.*.
............


